^C:\USERS\EMILIANO.SENEGA\SOURCE\REPOS\CPPCONPIPO\CPPCONPIPO\PCH.CPP
C:\USERS\EMILIANO.SENEGA\SOURCE\REPOS\CPPCONPIPO\CPPCONPIPO\RELEASE\CPPCONPIPO.PCH
C:\USERS\EMILIANO.SENEGA\SOURCE\REPOS\CPPCONPIPO\CPPCONPIPO\RELEASE\VC141.PDB
C:\USERS\EMILIANO.SENEGA\SOURCE\REPOS\CPPCONPIPO\CPPCONPIPO\RELEASE\PCH.OBJ
^C:\USERS\EMILIANO.SENEGA\SOURCE\REPOS\CPPCONPIPO\CPPCONPIPO\CPPCONPIPO.CPP|C:\USERS\EMILIANO.SENEGA\SOURCE\REPOS\CPPCONPIPO\CPPCONPIPO\LINKEDLIST.CPP
C:\USERS\EMILIANO.SENEGA\SOURCE\REPOS\CPPCONPIPO\CPPCONPIPO\RELEASE\VC141.PDB
C:\USERS\EMILIANO.SENEGA\SOURCE\REPOS\CPPCONPIPO\CPPCONPIPO\RELEASE\LINKEDLIST.OBJ
C:\USERS\EMILIANO.SENEGA\SOURCE\REPOS\CPPCONPIPO\CPPCONPIPO\RELEASE\CPPCONPIPO.OBJ
^C:\USERS\EMILIANO.SENEGA\SOURCE\REPOS\CPPCONPIPO\CPPCONPIPO\CPPCONPIPO.CPP
C:\USERS\EMILIANO.SENEGA\SOURCE\REPOS\CPPCONPIPO\CPPCONPIPO\RELEASE\VC141.PDB
^C:\USERS\EMILIANO.SENEGA\SOURCE\REPOS\CPPCONPIPO\CPPCONPIPO\LINKEDLIST.CPP
C:\USERS\EMILIANO.SENEGA\SOURCE\REPOS\CPPCONPIPO\CPPCONPIPO\RELEASE\VC141.PDB
