^C:\USERS\EMILIANO.SENEGA\SOURCE\REPOS\CPPCONPIPO\CPPCONPIPO\CPPCONPIPO.CPP|C:\USERS\EMILIANO.SENEGA\SOURCE\REPOS\CPPCONPIPO\CPPCONPIPO\LINKEDLIST.CPP
C:\USERS\EMILIANO.SENEGA\SOURCE\REPOS\CPPCONPIPO\CPPCONPIPO\X64\DEBUG\VC141.PDB
C:\USERS\EMILIANO.SENEGA\SOURCE\REPOS\CPPCONPIPO\CPPCONPIPO\X64\DEBUG\VC141.IDB
C:\USERS\EMILIANO.SENEGA\SOURCE\REPOS\CPPCONPIPO\CPPCONPIPO\X64\DEBUG\LINKEDLIST.OBJ
C:\USERS\EMILIANO.SENEGA\SOURCE\REPOS\CPPCONPIPO\CPPCONPIPO\X64\DEBUG\CPPCONPIPO.OBJ
^C:\USERS\EMILIANO.SENEGA\SOURCE\REPOS\CPPCONPIPO\CPPCONPIPO\PCH.CPP
C:\USERS\EMILIANO.SENEGA\SOURCE\REPOS\CPPCONPIPO\CPPCONPIPO\X64\DEBUG\CPPCONPIPO.PCH
C:\USERS\EMILIANO.SENEGA\SOURCE\REPOS\CPPCONPIPO\CPPCONPIPO\X64\DEBUG\VC141.PDB
C:\USERS\EMILIANO.SENEGA\SOURCE\REPOS\CPPCONPIPO\CPPCONPIPO\X64\DEBUG\VC141.IDB
C:\USERS\EMILIANO.SENEGA\SOURCE\REPOS\CPPCONPIPO\CPPCONPIPO\X64\DEBUG\PCH.OBJ
^C:\USERS\EMILIANO.SENEGA\SOURCE\REPOS\CPPCONPIPO\CPPCONPIPO\CPPCONPIPO.CPP
C:\USERS\EMILIANO.SENEGA\SOURCE\REPOS\CPPCONPIPO\CPPCONPIPO\X64\DEBUG\VC141.PDB
C:\USERS\EMILIANO.SENEGA\SOURCE\REPOS\CPPCONPIPO\CPPCONPIPO\X64\DEBUG\VC141.IDB
C:\USERS\EMILIANO.SENEGA\SOURCE\REPOS\CPPCONPIPO\CPPCONPIPO\X64\DEBUG\CPPCONPIPO.OBJ
