^C:\USERS\EMILIANO.SENEGA\SOURCE\REPOS\CPPCONPIPO\CPPCONPIPO\PCH.CPP
C:\USERS\EMILIANO.SENEGA\SOURCE\REPOS\CPPCONPIPO\CPPCONPIPO\DEBUG\CPPCONPIPO.PCH
C:\USERS\EMILIANO.SENEGA\SOURCE\REPOS\CPPCONPIPO\CPPCONPIPO\DEBUG\VC141.PDB
C:\USERS\EMILIANO.SENEGA\SOURCE\REPOS\CPPCONPIPO\CPPCONPIPO\DEBUG\VC141.IDB
C:\USERS\EMILIANO.SENEGA\SOURCE\REPOS\CPPCONPIPO\CPPCONPIPO\DEBUG\PCH.OBJ
^C:\USERS\EMILIANO.SENEGA\SOURCE\REPOS\CPPCONPIPO\CPPCONPIPO\CPPCONPIPO.CPP
C:\USERS\EMILIANO.SENEGA\SOURCE\REPOS\CPPCONPIPO\CPPCONPIPO\DEBUG\VC141.PDB
C:\USERS\EMILIANO.SENEGA\SOURCE\REPOS\CPPCONPIPO\CPPCONPIPO\DEBUG\VC141.IDB
C:\USERS\EMILIANO.SENEGA\SOURCE\REPOS\CPPCONPIPO\CPPCONPIPO\DEBUG\CPPCONPIPO.OBJ
